Quartus/simulation/qsim/LPM.msim.vcd
$comment
	File created using the following command:
		vcd file LPM.msim.vcd -direction
$end
$date
	Thu Oct 01 17:19:14 2015
$end
$version
	ModelSim Version 10.1d
$end
$timescale
	1ps
$end
$scope module registerarray_vlg_vec_tst $end
$var reg 1 ! WriteEnable $end
$var reg 1 " clock $end
$var reg 1 # clock_debug $end
$var reg 5 $ read_address_1 [4:0] $end
$var reg 5 % read_address_2 [4:0] $end
$var reg 5 & read_address_debug [4:0] $end
$var reg 1 ' reset $end
$var reg 1 ( write $end
$var reg 5 ) write_address [4:0] $end
$var reg 32 * write_data_in [31:0] $end
$var wire 1 + data_out_1 [31] $end
$var wire 1 , data_out_1 [30] $end
$var wire 1 - data_out_1 [29] $end
$var wire 1 . data_out_1 [28] $end
$var wire 1 / data_out_1 [27] $end
$var wire 1 0 data_out_1 [26] $end
$var wire 1 1 data_out_1 [25] $end
$var wire 1 2 data_out_1 [24] $end
$var wire 1 3 data_out_1 [23] $end
$var wire 1 4 data_out_1 [22] $end
$var wire 1 5 data_out_1 [21] $end
$var wire 1 6 data_out_1 [20] $end
$var wire 1 7 data_out_1 [19] $end
$var wire 1 8 data_out_1 [18] $end
$var wire 1 9 data_out_1 [17] $end
$var wire 1 : data_out_1 [16] $end
$var wire 1 ; data_out_1 [15] $end
$var wire 1 < data_out_1 [14] $end
$var wire 1 = data_out_1 [13] $end
$var wire 1 > data_out_1 [12] $end
$var wire 1 ? data_out_1 [11] $end
$var wire 1 @ data_out_1 [10] $end
$var wire 1 A data_out_1 [9] $end
$var wire 1 B data_out_1 [8] $end
$var wire 1 C data_out_1 [7] $end
$var wire 1 D data_out_1 [6] $end
$var wire 1 E data_out_1 [5] $end
$var wire 1 F data_out_1 [4] $end
$var wire 1 G data_out_1 [3] $end
$var wire 1 H data_out_1 [2] $end
$var wire 1 I data_out_1 [1] $end
$var wire 1 J data_out_1 [0] $end
$var wire 1 K data_out_2 [31] $end
$var wire 1 L data_out_2 [30] $end
$var wire 1 M data_out_2 [29] $end
$var wire 1 N data_out_2 [28] $end
$var wire 1 O data_out_2 [27] $end
$var wire 1 P data_out_2 [26] $end
$var wire 1 Q data_out_2 [25] $end
$var wire 1 R data_out_2 [24] $end
$var wire 1 S data_out_2 [23] $end
$var wire 1 T data_out_2 [22] $end
$var wire 1 U data_out_2 [21] $end
$var wire 1 V data_out_2 [20] $end
$var wire 1 W data_out_2 [19] $end
$var wire 1 X data_out_2 [18] $end
$var wire 1 Y data_out_2 [17] $end
$var wire 1 Z data_out_2 [16] $end
$var wire 1 [ data_out_2 [15] $end
$var wire 1 \ data_out_2 [14] $end
$var wire 1 ] data_out_2 [13] $end
$var wire 1 ^ data_out_2 [12] $end
$var wire 1 _ data_out_2 [11] $end
$var wire 1 ` data_out_2 [10] $end
$var wire 1 a data_out_2 [9] $end
$var wire 1 b data_out_2 [8] $end
$var wire 1 c data_out_2 [7] $end
$var wire 1 d data_out_2 [6] $end
$var wire 1 e data_out_2 [5] $end
$var wire 1 f data_out_2 [4] $end
$var wire 1 g data_out_2 [3] $end
$var wire 1 h data_out_2 [2] $end
$var wire 1 i data_out_2 [1] $end
$var wire 1 j data_out_2 [0] $end
$var wire 1 k data_out_debug [31] $end
$var wire 1 l data_out_debug [30] $end
$var wire 1 m data_out_debug [29] $end
$var wire 1 n data_out_debug [28] $end
$var wire 1 o data_out_debug [27] $end
$var wire 1 p data_out_debug [26] $end
$var wire 1 q data_out_debug [25] $end
$var wire 1 r data_out_debug [24] $end
$var wire 1 s data_out_debug [23] $end
$var wire 1 t data_out_debug [22] $end
$var wire 1 u data_out_debug [21] $end
$var wire 1 v data_out_debug [20] $end
$var wire 1 w data_out_debug [19] $end
$var wire 1 x data_out_debug [18] $end
$var wire 1 y data_out_debug [17] $end
$var wire 1 z data_out_debug [16] $end
$var wire 1 { data_out_debug [15] $end
$var wire 1 | data_out_debug [14] $end
$var wire 1 } data_out_debug [13] $end
$var wire 1 ~ data_out_debug [12] $end
$var wire 1 !! data_out_debug [11] $end
$var wire 1 "! data_out_debug [10] $end
$var wire 1 #! data_out_debug [9] $end
$var wire 1 $! data_out_debug [8] $end
$var wire 1 %! data_out_debug [7] $end
$var wire 1 &! data_out_debug [6] $end
$var wire 1 '! data_out_debug [5] $end
$var wire 1 (! data_out_debug [4] $end
$var wire 1 )! data_out_debug [3] $end
$var wire 1 *! data_out_debug [2] $end
$var wire 1 +! data_out_debug [1] $end
$var wire 1 ,! data_out_debug [0] $end
$var wire 1 -! sampler $end
$scope module i1 $end
$var wire 1 .! gnd $end
$var wire 1 /! vcc $end
$var wire 1 0! unknown $end
$var tri1 1 1! devclrn $end
$var tri1 1 2! devpor $end
$var tri1 1 3! devoe $end
$var wire 1 4! clock~combout $end
$var wire 1 5! clock~clkctrl_outclk $end
$var wire 1 6! reset~combout $end
$var wire 1 7! data_out_1~0_combout $end
$var wire 1 8! write~combout $end
$var wire 1 9! data_out_1[0]~1_combout $end
$var wire 1 :! data_out_1[0]~reg0_regout $end
$var wire 1 ;! data_out_1~2_combout $end
$var wire 1 <! data_out_1[1]~reg0_regout $end
$var wire 1 =! data_out_1~3_combout $end
$var wire 1 >! data_out_1[2]~reg0_regout $end
$var wire 1 ?! data_out_1~4_combout $end
$var wire 1 @! data_out_1[3]~reg0_regout $end
$var wire 1 A! data_out_1~5_combout $end
$var wire 1 B! data_out_1[4]~reg0_regout $end
$var wire 1 C! data_out_2~0_combout $end
$var wire 1 D! data_out_2[0]~reg0_regout $end
$var wire 1 E! data_out_2~1_combout $end
$var wire 1 F! data_out_2[1]~reg0_regout $end
$var wire 1 G! data_out_2~2_combout $end
$var wire 1 H! data_out_2[2]~reg0_regout $end
$var wire 1 I! data_out_2~3_combout $end
$var wire 1 J! data_out_2[3]~reg0_regout $end
$var wire 1 K! data_out_2~4_combout $end
$var wire 1 L! data_out_2[4]~reg0_regout $end
$var wire 1 M! read_address_2~combout [4] $end
$var wire 1 N! read_address_2~combout [3] $end
$var wire 1 O! read_address_2~combout [2] $end
$var wire 1 P! read_address_2~combout [1] $end
$var wire 1 Q! read_address_2~combout [0] $end
$var wire 1 R! read_address_1~combout [4] $end
$var wire 1 S! read_address_1~combout [3] $end
$var wire 1 T! read_address_1~combout [2] $end
$var wire 1 U! read_address_1~combout [1] $end
$var wire 1 V! read_address_1~combout [0] $end
$upscope $end
$upscope $end
$enddefinitions $end
#0
$dumpvars
1!
0"
0#
b1 $
b0 %
b0 &
0'
0(
b0 )
b0 *
0J
0I
0H
0G
0F
0E
0D
0C
0B
0A
0@
0?
0>
0=
0<
0;
0:
09
08
07
06
05
04
03
02
01
00
0/
0.
0-
0,
0+
0j
0i
0h
0g
0f
0e
0d
0c
0b
0a
0`
0_
0^
0]
0\
0[
0Z
0Y
0X
0W
0V
0U
0T
0S
0R
0Q
0P
0O
0N
0M
0L
0K
0,!
0+!
0*!
0)!
0(!
0'!
0&!
0%!
0$!
0#!
0"!
0!!
0~
0}
0|
0{
0z
0y
0x
0w
0v
0u
0t
0s
0r
0q
0p
0o
0n
0m
0l
0k
x-!
0.!
1/!
x0!
11!
12!
13!
04!
05!
06!
17!
08!
19!
0:!
0;!
0<!
0=!
0>!
0?!
0@!
0A!
0B!
0C!
0D!
0E!
0F!
0G!
0H!
0I!
0J!
0K!
0L!
0Q!
0P!
0O!
0N!
0M!
1V!
0U!
0T!
0S!
0R!
$end
#10000
1"
14!
15!
0-!
1:!
1J
#20000
0"
04!
05!
1-!
#30000
1"
14!
15!
0-!
#40000
0"
04!
05!
1-!
#50000
1"
14!
15!
0-!
#60000
b11 $
b10 $
0"
0V!
1U!
04!
05!
1-!
07!
1;!
#70000
1"
14!
15!
0-!
1<!
0:!
1I
0J
#80000
0"
04!
05!
1-!
#90000
1"
14!
15!
0-!
#100000
0"
04!
05!
1-!
#110000
1"
14!
15!
0-!
#120000
b11 $
0"
1V!
04!
05!
1-!
17!
#130000
1"
14!
15!
0-!
1:!
1J
#140000
0"
04!
05!
1-!
#150000
1"
14!
15!
0-!
#160000
0"
04!
05!
1-!
#170000
1"
14!
15!
0-!
#180000
b111 $
b101 $
b100 $
0"
0V!
0U!
1T!
04!
05!
1-!
07!
0;!
1=!
#190000
1"
14!
15!
0-!
1>!
0<!
0:!
1H
0I
0J
#200000
0"
04!
05!
1-!
#210000
1"
14!
15!
0-!
#220000
0"
04!
05!
1-!
#230000
1"
14!
15!
0-!
#240000
0"
04!
05!
1-!
#250000
b101 $
1"
1V!
14!
15!
0-!
17!
#260000
0"
04!
05!
1-!
#270000
1"
14!
15!
0-!
1:!
1J
#280000
0"
04!
05!
1-!
#290000
1"
14!
15!
0-!
#300000
0!
0"
04!
05!
1-!
#310000
b1 $
b0 $
1"
0V!
0T!
14!
15!
0-!
07!
0=!
#320000
0"
04!
05!
1-!
#330000
1"
14!
15!
0-!
0>!
0:!
0H
0J
#340000
0"
04!
05!
1-!
#350000
1"
14!
15!
0-!
#360000
0"
04!
05!
1-!
#370000
1"
14!
15!
0-!
#380000
0"
04!
05!
1-!
#390000
1"
14!
15!
0-!
#400000
0"
04!
05!
1-!
#410000
1"
14!
15!
0-!
#420000
0"
04!
05!
1-!
#430000
1"
14!
15!
0-!
#440000
0"
04!
05!
1-!
#450000
1"
14!
15!
0-!
#460000
0"
04!
05!
1-!
#470000
1"
14!
15!
0-!
#480000
0"
04!
05!
1-!
#490000
1"
14!
15!
0-!
#500000
0"
04!
05!
1-!
#510000
1"
14!
15!
0-!
#520000
0"
04!
05!
1-!
#530000
1"
14!
15!
0-!
#540000
0"
04!
05!
1-!
#550000
1"
14!
15!
0-!
#560000
0"
04!
05!
1-!
#570000
1"
14!
15!
0-!
#580000
0"
04!
05!
1-!
#590000
1"
14!
15!
0-!
#600000
0"
04!
05!
1-!
#610000
1"
14!
15!
0-!
#620000
0"
04!
05!
1-!
#630000
1"
14!
15!
0-!
#640000
0"
04!
05!
1-!
#650000
1"
14!
15!
0-!
#660000
0"
04!
05!
1-!
#670000
1"
14!
15!
0-!
#680000
0"
04!
05!
1-!
#690000
1"
14!
15!
0-!
#700000
0"
04!
05!
1-!
#710000
1"
14!
15!
0-!
#720000
0"
04!
05!
1-!
#730000
1"
14!
15!
0-!
#740000
0"
04!
05!
1-!
#750000
1"
14!
15!
0-!
#760000
0"
04!
05!
1-!
#770000
1"
14!
15!
0-!
#780000
0"
04!
05!
1-!
#790000
1"
14!
15!
0-!
#800000
0"
04!
05!
1-!
#810000
1"
14!
15!
0-!
#820000
0"
04!
05!
1-!
#830000
1"
14!
15!
0-!
#840000
0"
04!
05!
1-!
#850000
1"
14!
15!
0-!
#860000
0"
04!
05!
1-!
#870000
1"
14!
15!
0-!
#880000
0"
04!
05!
1-!
#890000
1"
14!
15!
0-!
#900000
0"
04!
05!
1-!
#910000
1"
14!
15!
0-!
#920000
0"
04!
05!
1-!
#930000
1"
14!
15!
0-!
#940000
0"
04!
05!
1-!
#950000
1"
14!
15!
0-!
#960000
0"
04!
05!
1-!
#970000
1"
14!
15!
0-!
#980000
0"
04!
05!
1-!
#990000
1"
14!
15!
0-!
